proj2.vcd
$date
   Nov 16, 2025 13:35:04
$end
$version
   ChipScope Pro Analyzer  13.4 O.87xd (Build 13400.12.7.126)
$end
$timescale
    1ns
$end

$scope module GAMEofPINGPONG $end
$var wire  1  n0 Clk25MHz $end
$var wire  1  n1 ourVsync $end
$var wire  1  n2 ourHsync $end
$var wire  1  n3 videoOn $end
$var wire  1  n4 DataPort[4] $end
$var wire  1  n5 DataPort[5] $end
$var wire  1  n6 DataPort[6] $end
$var wire  1  n7 DataPort[7] $end
$var wire  1  n8 DataPort[8] $end
$var wire  1  n9 DataPort[9] $end
$var wire  1  n10 DataPort[10] $end
$var wire  1  n11 DataPort[11] $end
$var wire  1  n12 DataPort[12] $end
$var wire  1  n13 DataPort[13] $end
$var wire  1  n14 DataPort[14] $end
$var wire  1  n15 DataPort[15] $end
$var wire  1  n16 DataPort[16] $end
$var wire  1  n17 DataPort[17] $end
$var wire  1  n18 DataPort[18] $end
$var wire  1  n19 DataPort[19] $end
$var wire  1  n20 DataPort[20] $end
$var wire  1  n21 DataPort[21] $end
$var wire  1  n22 DataPort[22] $end
$var wire  1  n23 DataPort[23] $end
$var wire  1  n24 DataPort[24] $end
$var wire  1  n25 DataPort[25] $end
$var wire  1  n26 DataPort[26] $end
$var wire  1  n27 DataPort[27] $end
$var wire  1  n28 DataPort[28] $end
$var wire  1  n29 DataPort[29] $end
$var wire  1  n30 DataPort[30] $end
$var wire  1  n31 DataPort[31] $end
$var wire  1  n32 DataPort[32] $end
$var wire  1  n33 DataPort[33] $end
$var wire  1  n34 DataPort[34] $end
$var wire  1  n35 DataPort[35] $end
$var wire  1  n36 DataPort[36] $end
$var wire  1  n37 DataPort[37] $end
$var wire  1  n38 DataPort[38] $end
$var wire  1  n39 DataPort[39] $end
$var wire  1  n40 DataPort[40] $end
$var wire  1  n41 DataPort[41] $end
$var wire  1  n42 DataPort[42] $end
$var wire  1  n43 DataPort[43] $end
$var wire  1  n44 DataPort[44] $end
$var wire  1  n45 DataPort[45] $end
$var wire  1  n46 DataPort[46] $end
$var wire  1  n47 DataPort[47] $end
$var wire  1  n48 DataPort[48] $end
$var wire  1  n49 DataPort[49] $end
$var wire  1  n50 DataPort[50] $end
$var wire  1  n51 DataPort[51] $end
$var wire  1  n52 DataPort[52] $end
$var wire  1  n53 DataPort[53] $end
$var wire  1  n54 DataPort[54] $end
$var wire  1  n55 DataPort[55] $end
$var wire  1  n56 DataPort[56] $end
$var wire  1  n57 DataPort[57] $end
$var wire  1  n58 DataPort[58] $end
$var wire  1  n59 DataPort[59] $end
$var wire  1  n60 DataPort[60] $end
$var wire  1  n61 DataPort[61] $end
$var wire  1  n62 DataPort[62] $end
$var wire  1  n63 DataPort[63] $end
$var wire  1  n64 DataPort[64] $end
$var wire  1  n65 DataPort[65] $end
$var wire  1  n66 DataPort[66] $end
$var wire  1  n67 DataPort[67] $end
$var wire  1  n68 DataPort[68] $end
$var wire  1  n69 DataPort[69] $end
$var wire  1  n70 DataPort[70] $end
$var wire  1  n71 DataPort[71] $end
$var wire  1  n72 DataPort[72] $end
$var wire  1  n73 DataPort[73] $end
$var wire  1  n74 DataPort[74] $end
$var wire  1  n75 DataPort[75] $end
$var wire  1  n76 DataPort[76] $end
$var wire  1  n77 DataPort[77] $end
$var wire  1  n78 DataPort[78] $end
$var wire  1  n79 DataPort[79] $end
$var wire  1  n80 DataPort[80] $end
$var wire  1  n81 DataPort[81] $end
$var wire  1  n82 DataPort[82] $end
$var wire  1  n83 DataPort[83] $end
$var wire  1  n84 DataPort[84] $end
$var wire  1  n85 DataPort[85] $end
$var wire  1  n86 DataPort[86] $end
$var wire  1  n87 DataPort[87] $end
$var wire  1  n88 DataPort[88] $end
$var wire  1  n89 DataPort[89] $end
$var wire  1  n90 DataPort[90] $end
$var wire  1  n91 DataPort[91] $end
$var wire  1  n92 DataPort[92] $end
$var wire  1  n93 DataPort[93] $end
$var wire  1  n94 DataPort[94] $end
$var wire  1  n95 DataPort[95] $end
$var wire  1  n96 DataPort[96] $end
$var wire  1  n97 DataPort[97] $end
$var wire  1  n98 DataPort[98] $end
$var wire  1  n99 DataPort[99] $end
$var wire  1  n100 DataPort[100] $end
$var wire  1  n101 DataPort[101] $end
$var wire  1  n102 DataPort[102] $end
$var wire  1  n103 DataPort[103] $end
$var wire  1  n104 DataPort[104] $end
$var wire  1  n105 DataPort[105] $end
$var wire  1  n106 DataPort[106] $end
$var wire  1  n107 DataPort[107] $end
$var wire  1  n108 DataPort[108] $end
$var wire  1  n109 DataPort[109] $end
$var wire  1  n110 DataPort[110] $end
$var wire  1  n111 DataPort[111] $end
$var wire  1  n112 DataPort[112] $end
$var wire  1  n113 DataPort[113] $end
$var wire  1  n114 DataPort[114] $end
$var wire  1  n115 DataPort[115] $end
$var wire  1  n116 DataPort[116] $end
$var wire  1  n117 DataPort[117] $end
$var wire  1  n118 DataPort[118] $end
$var wire  1  n119 DataPort[119] $end
$var wire  1  n120 DataPort[120] $end
$var wire  1  n121 DataPort[121] $end
$var wire  1  n122 DataPort[122] $end
$var wire  1  n123 DataPort[123] $end
$var wire  1  n124 DataPort[124] $end
$var wire  1  n125 DataPort[125] $end
$var wire  1  n126 DataPort[126] $end
$var wire  1  n127 DataPort[127] $end
$var wire 8 n128 B $end
$var wire 8 n129 G $end
$var wire 8 n130 horCounter $end
$var wire 8 n131 R $end
$var wire 84 n132 Unimportant $end
$var wire 8 n133 verCounter $end
$upscope $end
$enddefinitions $end

#0
0n0
1n1
0n2
0n3
0n4
0n5
0n6
0n7
0n8
0n9
0n10
0n11
0n12
0n13
0n14
0n15
0n16
0n17
0n18
0n19
0n20
0n21
0n22
0n23
0n24
0n25
0n26
0n27
0n28
1n29
1n30
1n31
1n32
0n33
1n34
1n35
0n36
1n37
0n38
1n39
0n40
0n41
0n42
0n43
0n44
0n45
0n46
0n47
0n48
0n49
0n50
0n51
0n52
0n53
0n54
0n55
0n56
0n57
0n58
0n59
0n60
0n61
0n62
0n63
0n64
0n65
0n66
0n67
0n68
0n69
0n70
0n71
0n72
0n73
0n74
0n75
0n76
0n77
0n78
0n79
0n80
0n81
0n82
0n83
0n84
0n85
0n86
0n87
0n88
0n89
0n90
0n91
0n92
0n93
0n94
0n95
0n96
0n97
0n98
0n99
0n100
0n101
0n102
0n103
0n104
0n105
0n106
0n107
0n108
0n109
0n110
0n111
0n112
0n113
0n114
0n115
0n116
0n117
0n118
0n119
0n120
0n121
0n122
0n123
0n124
0n125
0n126
0n127
b0 n128
b0 n129
b11011110 n130
b0 n131
b0 n132
b1010 n133
#1
1n0
1n28
b11011111 n130
#2
0n0
#3
1n0
0n28
0n29
0n30
0n31
0n32
1n33
b11100000 n130
#4
0n0
#5
1n0
1n28
b11100001 n130
#6
0n0
#7
1n0
0n28
1n29
b11100010 n130
#8
0n0
#9
1n0
1n28
b11100011 n130
#10
0n0
#11
1n0
0n28
0n29
1n30
b11100100 n130
#12
0n0
#13
1n0
1n28
b11100101 n130
#14
0n0
#15
1n0
0n28
1n29
b11100110 n130
#16
0n0
#17
1n0
1n28
b11100111 n130
#18
0n0
#19
1n0
0n28
0n29
0n30
1n31
b11101000 n130
#20
0n0
#21
1n0
1n28
b11101001 n130
#22
0n0
#23
1n0
0n28
1n29
b11101010 n130
#24
0n0
#25
1n0
1n28
b11101011 n130
#26
0n0
#27
1n0
0n28
0n29
1n30
b11101100 n130
#28
0n0
#29
1n0
1n28
b11101101 n130
#30
0n0
#31
1n0
0n28
1n29
b11101110 n130
#32
0n0
#33
1n0
1n28
b11101111 n130
#34
0n0
#35
1n0
0n28
0n29
0n30
0n31
1n32
b11110000 n130
#36
0n0
#37
1n0
1n28
b11110001 n130
#38
0n0
#39
1n0
1n2
0n28
1n29
b11110010 n130
#40
0n0
#41
1n0
1n28
b11110011 n130
#42
0n0
#43
1n0
0n28
0n29
1n30
b11110100 n130
#44
0n0
#45
1n0
1n28
b11110101 n130
#46
0n0
#47
1n0
0n28
1n29
b11110110 n130
#48
0n0
#49
1n0
1n28
b11110111 n130
#50
0n0
#51
1n0
0n28
0n29
0n30
1n31
b11111000 n130
#52
0n0
#53
1n0
1n28
b11111001 n130
#54
0n0
#55
1n0
0n28
1n29
b11111010 n130
#56
0n0
#57
1n0
1n28
b11111011 n130
#58
0n0
#59
1n0
0n28
0n29
1n30
b11111100 n130
#60
0n0
#61
1n0
1n28
b11111101 n130
#62
0n0
#63
1n0
0n28
1n29
b11111110 n130
#64
0n0
#65
1n0
1n28
b11111111 n130
#66
0n0
#67
1n0
0n28
0n29
0n30
0n31
0n32
0n33
0n34
0n35
b0 n130
#68
0n0
#69
1n0
1n28
b1 n130
#70
0n0
#71
1n0
0n28
1n29
b10 n130
#72
0n0
#73
1n0
1n28
b11 n130
#74
0n0
#75
1n0
0n28
0n29
1n30
b100 n130
#76
0n0
#77
1n0
1n28
b101 n130
#78
0n0
#79
1n0
0n28
1n29
b110 n130
#80
0n0
#81
1n0
1n28
b111 n130
#82
0n0
#83
1n0
0n28
0n29
0n30
1n31
b1000 n130
#84
0n0
#85
1n0
1n28
b1001 n130
#86
0n0
#87
1n0
0n28
1n29
b1010 n130
#88
0n0
#89
1n0
1n28
b1011 n130
#90
0n0
#91
1n0
0n28
0n29
1n30
b1100 n130
#92
0n0
#93
1n0
1n28
b1101 n130
#94
0n0
#95
1n0
0n28
1n29
b1110 n130
#96
0n0
#97
1n0
1n28
b1111 n130
#98
0n0
#99
1n0
0n28
0n29
0n30
0n31
1n32
b10000 n130
#100
0n0
#101
1n0
1n28
b10001 n130
#102
0n0
#103
1n0
0n28
1n29
b10010 n130
#104
0n0
#105
1n0
1n28
b10011 n130
#106
0n0
#107
1n0
0n28
0n29
1n30
b10100 n130
#108
0n0
#109
1n0
1n28
b10101 n130
#110
0n0
#111
1n0
0n28
1n29
b10110 n130
#112
0n0
#113
1n0
1n28
b10111 n130
#114
0n0
#115
1n0
0n28
0n29
0n30
1n31
b11000 n130
#116
0n0
#117
1n0
1n28
b11001 n130
#118
0n0
#119
1n0
0n28
1n29
b11010 n130
#120
0n0
#121
1n0
1n28
b11011 n130
#122
0n0
#123
1n0
0n28
0n29
1n30
b11100 n130
#124
0n0
#125
1n0
1n28
b11101 n130
#126
0n0
#127
1n0
0n28
1n29
b11110 n130
#128
0n0
#129
1n0
1n28
b11111 n130
#130
0n0
#131
1n0
0n28
0n29
0n30
0n31
0n32
1n36
b0 n130
b1011 n133
#132
0n0
#133
1n0
1n3
1n28
b1 n130
#134
0n0
#135
1n0
1n12
1n13
1n14
1n15
1n16
1n17
1n18
1n19
0n28
1n29
b11111111 n129
b10 n130
#136
0n0
#137
1n0
1n28
b11 n130
#138
0n0
#139
1n0
0n28
0n29
1n30
b100 n130
#140
0n0
#141
1n0
1n28
b101 n130
#142
0n0
#143
1n0
0n28
1n29
b110 n130
#144
0n0
#145
1n0
1n28
b111 n130
#146
0n0
#147
1n0
0n28
0n29
0n30
1n31
b1000 n130
#148
0n0
#149
1n0
1n28
b1001 n130
#150
0n0
#151
1n0
0n28
1n29
b1010 n130
#152
0n0
#153
1n0
1n28
b1011 n130
#154
0n0
#155
1n0
0n28
0n29
1n30
b1100 n130
#156
0n0
#157
1n0
1n28
b1101 n130
#158
0n0
#159
1n0
0n28
1n29
b1110 n130
#160
0n0
#161
1n0
1n28
b1111 n130
#162
0n0
#163
1n0
0n28
0n29
0n30
0n31
1n32
b10000 n130
#164
0n0
#165
1n0
1n28
b10001 n130
#166
0n0
#167
1n0
0n28
1n29
b10010 n130
#168
0n0
#169
1n0
1n28
b10011 n130
#170
0n0
#171
1n0
0n28
0n29
1n30
b10100 n130
#172
0n0
#173
1n0
1n28
b10101 n130
#174
0n0
#175
1n0
1n4
1n5
1n6
1n7
1n8
1n9
1n10
1n11
1n20
1n21
1n22
1n23
1n24
1n25
1n26
1n27
0n28
1n29
b11111111 n128
b10110 n130
b11111111 n131
#176
0n0
#177
1n0
1n28
b10111 n130
#178
0n0
#179
1n0
0n28
0n29
0n30
1n31
b11000 n130
#180
0n0
#181
1n0
1n28
b11001 n130
#182
0n0
#183
1n0
0n28
1n29
b11010 n130
#184
0n0
#185
1n0
1n28
b11011 n130
#186
0n0
#187
1n0
0n28
0n29
1n30
b11100 n130
#188
0n0
#189
1n0
1n28
b11101 n130
#190
0n0
#191
1n0
0n28
1n29
b11110 n130
#192
0n0
#193
1n0
1n28
b11111 n130
#194
0n0
#195
1n0
0n28
0n29
0n30
0n31
0n32
1n33
b100000 n130
#196
0n0
#197
1n0
1n28
b100001 n130
#198
0n0
#199
1n0
0n28
1n29
b100010 n130
#200
0n0
#201
1n0
1n28
b100011 n130
#202
0n0
#203
1n0
0n28
0n29
1n30
b100100 n130
#204
0n0
#205
1n0
1n28
b100101 n130
#206
0n0
#207
1n0
0n28
1n29
b100110 n130
#208
0n0
#209
1n0
1n28
b100111 n130
#210
0n0
#211
1n0
0n28
0n29
0n30
1n31
b101000 n130
#212
0n0
#213
1n0
1n28
b101001 n130
#214
0n0
#215
1n0
0n28
1n29
b101010 n130
#216
0n0
#217
1n0
1n28
b101011 n130
#218
0n0
#219
1n0
0n28
0n29
1n30
b101100 n130
#220
0n0
#221
1n0
1n28
b101101 n130
#222
0n0
#223
1n0
0n28
1n29
b101110 n130
#224
0n0
#225
1n0
1n28
b101111 n130
#226
0n0
#227
1n0
0n28
0n29
0n30
0n31
1n32
b110000 n130
#228
0n0
#229
1n0
1n28
b110001 n130
#230
0n0
#231
1n0
0n28
1n29
b110010 n130
#232
0n0
#233
1n0
1n28
b110011 n130
#234
0n0
#235
1n0
0n28
0n29
1n30
b110100 n130
#236
0n0
#237
1n0
1n28
b110101 n130
#238
0n0
#239
1n0
0n28
1n29
b110110 n130
#240
0n0
#241
1n0
1n28
b110111 n130
#242
0n0
#243
1n0
0n28
0n29
0n30
1n31
b111000 n130
#244
0n0
#245
1n0
1n28
b111001 n130
#246
0n0
#247
1n0
0n28
1n29
b111010 n130
#248
0n0
#249
1n0
1n28
b111011 n130
#250
0n0
#251
1n0
0n28
0n29
1n30
b111100 n130
#252
0n0
#253
1n0
1n28
b111101 n130
#254
0n0
#255
1n0
0n28
1n29
b111110 n130
#256
0n0
#257
1n0
1n28
b111111 n130
#258
0n0
#259
1n0
0n28
0n29
0n30
0n31
0n32
0n33
1n34
b1000000 n130
#260
0n0
#261
1n0
1n28
b1000001 n130
#262
0n0
#263
1n0
0n28
1n29
b1000010 n130
#264
0n0
#265
1n0
1n28
b1000011 n130
#266
0n0
#267
1n0
0n28
0n29
1n30
b1000100 n130
#268
0n0
#269
1n0
1n28
b1000101 n130
#270
0n0
#271
1n0
0n28
1n29
b1000110 n130
#272
0n0
#273
1n0
1n28
b1000111 n130
#274
0n0
#275
1n0
0n28
0n29
0n30
1n31
b1001000 n130
#276
0n0
#277
1n0
1n28
b1001001 n130
#278
0n0
#279
1n0
0n28
1n29
b1001010 n130
#280
0n0
#281
1n0
1n28
b1001011 n130
#282
0n0
#283
1n0
0n28
0n29
1n30
b1001100 n130
#284
0n0
#285
1n0
1n28
b1001101 n130
#286
0n0
#287
1n0
0n28
1n29
b1001110 n130
#288
0n0
#289
1n0
1n28
b1001111 n130
#290
0n0
#291
1n0
0n28
0n29
0n30
0n31
1n32
b1010000 n130
#292
0n0
#293
1n0
1n28
b1010001 n130
#294
0n0
#295
1n0
0n28
1n29
b1010010 n130
#296
0n0
#297
1n0
1n28
b1010011 n130
#298
0n0
#299
1n0
0n28
0n29
1n30
b1010100 n130
#300
0n0
#301
1n0
1n28
b1010101 n130
#302
0n0
#303
1n0
0n28
1n29
b1010110 n130
#304
0n0
#305
1n0
1n28
b1010111 n130
#306
0n0
#307
1n0
0n28
0n29
0n30
1n31
b1011000 n130
#308
0n0
#309
1n0
1n28
b1011001 n130
#310
0n0
#311
1n0
0n28
1n29
b1011010 n130
#312
0n0
#313
1n0
1n28
b1011011 n130
#314
0n0
#315
1n0
0n28
0n29
1n30
b1011100 n130
#316
0n0
#317
1n0
1n28
b1011101 n130
#318
0n0
#319
1n0
0n28
1n29
b1011110 n130
#320
0n0
#321
1n0
1n28
b1011111 n130
#322
0n0
#323
1n0
0n28
0n29
0n30
0n31
0n32
1n33
b1100000 n130
#324
0n0
#325
1n0
1n28
b1100001 n130
#326
0n0
#327
1n0
0n28
1n29
b1100010 n130
#328
0n0
#329
1n0
1n28
b1100011 n130
#330
0n0
#331
1n0
0n28
0n29
1n30
b1100100 n130
#332
0n0
#333
1n0
1n28
b1100101 n130
#334
0n0
#335
1n0
0n28
1n29
b1100110 n130
#336
0n0
#337
1n0
1n28
b1100111 n130
#338
0n0
#339
1n0
0n28
0n29
0n30
1n31
b1101000 n130
#340
0n0
#341
1n0
1n28
b1101001 n130
#342
0n0
#343
1n0
0n28
1n29
b1101010 n130
#344
0n0
#345
1n0
1n28
b1101011 n130
#346
0n0
#347
1n0
0n28
0n29
1n30
b1101100 n130
#348
0n0
#349
1n0
1n28
b1101101 n130
#350
0n0
#351
1n0
0n28
1n29
b1101110 n130
#352
0n0
#353
1n0
1n28
b1101111 n130
#354
0n0
#355
1n0
0n28
0n29
0n30
0n31
1n32
b1110000 n130
#356
0n0
#357
1n0
1n28
b1110001 n130
#358
0n0
#359
1n0
0n28
1n29
b1110010 n130
#360
0n0
#361
1n0
1n28
b1110011 n130
#362
0n0
#363
1n0
0n28
0n29
1n30
b1110100 n130
#364
0n0
#365
1n0
1n28
b1110101 n130
#366
0n0
#367
1n0
0n28
1n29
b1110110 n130
#368
0n0
#369
1n0
1n28
b1110111 n130
#370
0n0
#371
1n0
0n28
0n29
0n30
1n31
b1111000 n130
#372
0n0
#373
1n0
1n28
b1111001 n130
#374
0n0
#375
1n0
0n28
1n29
b1111010 n130
#376
0n0
#377
1n0
1n28
b1111011 n130
#378
0n0
#379
1n0
0n28
0n29
1n30
b1111100 n130
#380
0n0
#381
1n0
1n28
b1111101 n130
#382
0n0
#383
1n0
0n28
1n29
b1111110 n130
#384
0n0
#385
1n0
1n28
b1111111 n130
#386
0n0
#387
1n0
0n28
0n29
0n30
0n31
0n32
0n33
0n34
1n35
b10000000 n130
#388
0n0
#389
1n0
1n28
b10000001 n130
#390
0n0
#391
1n0
0n28
1n29
b10000010 n130
#392
0n0
#393
1n0
1n28
b10000011 n130
#394
0n0
#395
1n0
0n28
0n29
1n30
b10000100 n130
#396
0n0
#397
1n0
1n28
b10000101 n130
#398
0n0
#399
1n0
0n28
1n29
b10000110 n130
#400
0n0
#401
1n0
1n28
b10000111 n130
#402
0n0
#403
1n0
0n28
0n29
0n30
1n31
b10001000 n130
#404
0n0
#405
1n0
1n28
b10001001 n130
#406
0n0
#407
1n0
0n28
1n29
b10001010 n130
#408
0n0
#409
1n0
1n28
b10001011 n130
#410
0n0
#411
1n0
0n28
0n29
1n30
b10001100 n130
#412
0n0
#413
1n0
1n28
b10001101 n130
#414
0n0
#415
1n0
0n28
1n29
b10001110 n130
#416
0n0
#417
1n0
1n28
b10001111 n130
#418
0n0
#419
1n0
0n28
0n29
0n30
0n31
1n32
b10010000 n130
#420
0n0
#421
1n0
1n28
b10010001 n130
#422
0n0
#423
1n0
0n28
1n29
b10010010 n130
#424
0n0
#425
1n0
1n28
b10010011 n130
#426
0n0
#427
1n0
0n28
0n29
1n30
b10010100 n130
#428
0n0
#429
1n0
1n28
b10010101 n130
#430
0n0
#431
1n0
0n28
1n29
b10010110 n130
#432
0n0
#433
1n0
1n28
b10010111 n130
#434
0n0
#435
1n0
0n28
0n29
0n30
1n31
b10011000 n130
#436
0n0
#437
1n0
1n28
b10011001 n130
#438
0n0
#439
1n0
0n28
1n29
b10011010 n130
#440
0n0
#441
1n0
1n28
b10011011 n130
#442
0n0
#443
1n0
0n28
0n29
1n30
b10011100 n130
#444
0n0
#445
1n0
1n28
b10011101 n130
#446
0n0
#447
1n0
0n28
1n29
b10011110 n130
#448
0n0
#449
1n0
1n28
b10011111 n130
#450
0n0
#451
1n0
0n28
0n29
0n30
0n31
0n32
1n33
b10100000 n130
#452
0n0
#453
1n0
1n28
b10100001 n130
#454
0n0
#455
1n0
0n28
1n29
b10100010 n130
#456
0n0
#457
1n0
1n28
b10100011 n130
#458
0n0
#459
1n0
0n28
0n29
1n30
b10100100 n130
#460
0n0
#461
1n0
1n28
b10100101 n130
#462
0n0
#463
1n0
0n28
1n29
b10100110 n130
#464
0n0
#465
1n0
1n28
b10100111 n130
#466
0n0
#467
1n0
0n28
0n29
0n30
1n31
b10101000 n130
#468
0n0
#469
1n0
1n28
b10101001 n130
#470
0n0
#471
1n0
0n28
1n29
b10101010 n130
#472
0n0
#473
1n0
1n28
b10101011 n130
#474
0n0
#475
1n0
0n28
0n29
1n30
b10101100 n130
#476
0n0
#477
1n0
1n28
b10101101 n130
#478
0n0
#479
1n0
0n28
1n29
b10101110 n130
#480
0n0
#481
1n0
1n28
b10101111 n130
#482
0n0
#483
1n0
0n28
0n29
0n30
0n31
1n32
b10110000 n130
#484
0n0
#485
1n0
1n28
b10110001 n130
#486
0n0
#487
1n0
0n28
1n29
b10110010 n130
#488
0n0
#489
1n0
1n28
b10110011 n130
#490
0n0
#491
1n0
0n28
0n29
1n30
b10110100 n130
#492
0n0
#493
1n0
1n28
b10110101 n130
#494
0n0
#495
1n0
0n28
1n29
b10110110 n130
#496
0n0
#497
1n0
1n28
b10110111 n130
#498
0n0
#499
1n0
0n28
0n29
0n30
1n31
b10111000 n130
#500
0n0
#501
1n0
1n28
b10111001 n130
#502
0n0
#503
1n0
0n28
1n29
b10111010 n130
#504
0n0
#505
1n0
1n28
b10111011 n130
#506
0n0
#507
1n0
0n28
0n29
1n30
b10111100 n130
#508
0n0
#509
1n0
1n28
b10111101 n130
#510
0n0
#511
1n0
0n28
1n29
b10111110 n130
#512
0n0
#513
1n0
1n28
b10111111 n130
#514
0n0
#515
1n0
0n28
0n29
0n30
0n31
0n32
0n33
1n34
b11000000 n130
#516
0n0
#517
1n0
1n28
b11000001 n130
#518
0n0
#519
1n0
0n28
1n29
b11000010 n130
#520
0n0
#521
1n0
1n28
b11000011 n130
#522
0n0
#523
1n0
0n28
0n29
1n30
b11000100 n130
#524
0n0
#525
1n0
1n28
b11000101 n130
#526
0n0
#527
1n0
0n28
1n29
b11000110 n130
#528
0n0
#529
1n0
1n28
b11000111 n130
#530
0n0
#531
1n0
0n28
0n29
0n30
1n31
b11001000 n130
#532
0n0
#533
1n0
1n28
b11001001 n130
#534
0n0
#535
1n0
0n28
1n29
b11001010 n130
#536
0n0
#537
1n0
1n28
b11001011 n130
#538
0n0
#539
1n0
0n28
0n29
1n30
b11001100 n130
#540
0n0
#541
1n0
1n28
b11001101 n130
#542
0n0
#543
1n0
0n28
1n29
b11001110 n130
#544
0n0
#545
1n0
1n28
b11001111 n130
#546
0n0
#547
1n0
0n28
0n29
0n30
0n31
1n32
b11010000 n130
#548
0n0
#549
1n0
1n28
b11010001 n130
#550
0n0
#551
1n0
0n28
1n29
b11010010 n130
#552
0n0
#553
1n0
1n28
b11010011 n130
#554
0n0
#555
1n0
0n28
0n29
1n30
b11010100 n130
#556
0n0
#557
1n0
1n28
b11010101 n130
#558
0n0
#559
1n0
0n28
1n29
b11010110 n130
#560
0n0
#561
1n0
1n28
b11010111 n130
#562
0n0
#563
1n0
0n28
0n29
0n30
1n31
b11011000 n130
#564
0n0
#565
1n0
1n28
b11011001 n130
#566
0n0
#567
1n0
0n28
1n29
b11011010 n130
#568
0n0
#569
1n0
1n28
b11011011 n130
#570
0n0
#571
1n0
0n28
0n29
1n30
b11011100 n130
#572
0n0
#573
1n0
1n28
b11011101 n130
#574
0n0
#575
1n0
0n28
1n29
b11011110 n130
#576
0n0
#577
1n0
1n28
b11011111 n130
#578
0n0
#579
1n0
0n28
0n29
0n30
0n31
0n32
1n33
b11100000 n130
#580
0n0
#581
1n0
1n28
b11100001 n130
#582
0n0
#583
1n0
0n28
1n29
b11100010 n130
#584
0n0
#585
1n0
1n28
b11100011 n130
#586
0n0
#587
1n0
0n28
0n29
1n30
b11100100 n130
#588
0n0
#589
1n0
1n28
b11100101 n130
#590
0n0
#591
1n0
0n28
1n29
b11100110 n130
#592
0n0
#593
1n0
1n28
b11100111 n130
#594
0n0
#595
1n0
0n28
0n29
0n30
1n31
b11101000 n130
#596
0n0
#597
1n0
1n28
b11101001 n130
#598
0n0
#599
1n0
0n28
1n29
b11101010 n130
#600
0n0
#601
1n0
1n28
b11101011 n130
#602
0n0
#603
1n0
0n28
0n29
1n30
b11101100 n130
#604
0n0
#605
1n0
1n28
b11101101 n130
#606
0n0
#607
1n0
0n28
1n29
b11101110 n130
#608
0n0
#609
1n0
1n28
b11101111 n130
#610
0n0
#611
1n0
0n28
0n29
0n30
0n31
1n32
b11110000 n130
#612
0n0
#613
1n0
1n28
b11110001 n130
#614
0n0
#615
1n0
0n28
1n29
b11110010 n130
#616
0n0
#617
1n0
1n28
b11110011 n130
#618
0n0
#619
1n0
0n28
0n29
1n30
b11110100 n130
#620
0n0
#621
1n0
1n28
b11110101 n130
#622
0n0
#623
1n0
0n28
1n29
b11110110 n130
#624
0n0
#625
1n0
1n28
b11110111 n130
#626
0n0
#627
1n0
0n28
0n29
0n30
1n31
b11111000 n130
#628
0n0
#629
1n0
1n28
b11111001 n130
#630
0n0
#631
1n0
0n28
1n29
b11111010 n130
#632
0n0
#633
1n0
1n28
b11111011 n130
#634
0n0
#635
1n0
0n28
0n29
1n30
b11111100 n130
#636
0n0
#637
1n0
1n28
b11111101 n130
#638
0n0
#639
1n0
0n28
1n29
b11111110 n130
#640
0n0
#641
1n0
1n28
b11111111 n130
#642
0n0
#643
1n0
0n28
0n29
0n30
0n31
0n32
0n33
0n34
0n35
b0 n130
#644
0n0
#645
1n0
1n28
b1 n130
#646
0n0
#647
1n0
0n28
1n29
b10 n130
#648
0n0
#649
1n0
1n28
b11 n130
#650
0n0
#651
1n0
0n28
0n29
1n30
b100 n130
#652
0n0
#653
1n0
1n28
b101 n130
#654
0n0
#655
1n0
0n28
1n29
b110 n130
#656
0n0
#657
1n0
1n28
b111 n130
#658
0n0
#659
1n0
0n28
0n29
0n30
1n31
b1000 n130
#660
0n0
#661
1n0
1n28
b1001 n130
#662
0n0
#663
1n0
0n28
1n29
b1010 n130
#664
0n0
#665
1n0
1n28
b1011 n130
#666
0n0
#667
1n0
0n28
0n29
1n30
b1100 n130
#668
0n0
#669
1n0
1n28
b1101 n130
#670
0n0
#671
1n0
0n28
1n29
b1110 n130
#672
0n0
#673
1n0
1n28
b1111 n130
#674
0n0
#675
1n0
0n28
0n29
0n30
0n31
1n32
b10000 n130
#676
0n0
#677
1n0
1n28
b10001 n130
#678
0n0
#679
1n0
0n28
1n29
b10010 n130
#680
0n0
#681
1n0
1n28
b10011 n130
#682
0n0
#683
1n0
0n28
0n29
1n30
b10100 n130
#684
0n0
#685
1n0
1n28
b10101 n130
#686
0n0
#687
1n0
0n28
1n29
b10110 n130
#688
0n0
#689
1n0
1n28
b10111 n130
#690
0n0
#691
1n0
0n28
0n29
0n30
1n31
b11000 n130
#692
0n0
#693
1n0
1n28
b11001 n130
#694
0n0
#695
1n0
0n28
1n29
b11010 n130
#696
0n0
#697
1n0
1n28
b11011 n130
#698
0n0
#699
1n0
0n28
0n29
1n30
b11100 n130
#700
0n0
#701
1n0
1n28
b11101 n130
#702
0n0
#703
1n0
0n28
1n29
b11110 n130
#704
0n0
#705
1n0
1n28
b11111 n130
#706
0n0
#707
1n0
0n28
0n29
0n30
0n31
0n32
1n33
b100000 n130
#708
0n0
#709
1n0
1n28
b100001 n130
#710
0n0
#711
1n0
0n28
1n29
b100010 n130
#712
0n0
#713
1n0
1n28
b100011 n130
#714
0n0
#715
1n0
0n28
0n29
1n30
b100100 n130
#716
0n0
#717
1n0
1n28
b100101 n130
#718
0n0
#719
1n0
0n28
1n29
b100110 n130
#720
0n0
#721
1n0
1n28
b100111 n130
#722
0n0
#723
1n0
0n28
0n29
0n30
1n31
b101000 n130
#724
0n0
#725
1n0
1n28
b101001 n130
#726
0n0
#727
1n0
0n28
1n29
b101010 n130
#728
0n0
#729
1n0
1n28
b101011 n130
#730
0n0
#731
1n0
0n28
0n29
1n30
b101100 n130
#732
0n0
#733
1n0
1n28
b101101 n130
#734
0n0
#735
1n0
0n28
1n29
b101110 n130
#736
0n0
#737
1n0
1n28
b101111 n130
#738
0n0
#739
1n0
0n28
0n29
0n30
0n31
1n32
b110000 n130
#740
0n0
#741
1n0
1n28
b110001 n130
#742
0n0
#743
1n0
0n28
1n29
b110010 n130
#744
0n0
#745
1n0
1n28
b110011 n130
#746
0n0
#747
1n0
0n28
0n29
1n30
b110100 n130
#748
0n0
#749
1n0
1n28
b110101 n130
#750
0n0
#751
1n0
0n28
1n29
b110110 n130
#752
0n0
#753
1n0
1n28
b110111 n130
#754
0n0
#755
1n0
0n28
0n29
0n30
1n31
b111000 n130
#756
0n0
#757
1n0
1n28
b111001 n130
#758
0n0
#759
1n0
0n28
1n29
b111010 n130
#760
0n0
#761
1n0
1n28
b111011 n130
#762
0n0
#763
1n0
0n28
0n29
1n30
b111100 n130
#764
0n0
#765
1n0
1n28
b111101 n130
#766
0n0
#767
1n0
0n28
1n29
b111110 n130
#768
0n0
#769
1n0
1n28
b111111 n130
#770
0n0
#771
1n0
0n28
0n29
0n30
0n31
0n32
0n33
1n34
b1000000 n130
#772
0n0
#773
1n0
1n28
b1000001 n130
#774
0n0
#775
1n0
0n28
1n29
b1000010 n130
#776
0n0
#777
1n0
1n28
b1000011 n130
#778
0n0
#779
1n0
0n28
0n29
1n30
b1000100 n130
#780
0n0
#781
1n0
1n28
b1000101 n130
#782
0n0
